Project 1: Exploratory Data Analysis
…
library("tidyverse")
library(tidyr)
library(dplyr)

Tidying Dataset #1

suiciderates1 <- suiciderates %>% select(Country:X2000) %>% na.omit()
untidysuicide <- suiciderates1 %>% pivot_wider(names_from = "Country", 
    values_from = "X2016")
tidysuicide <- untidysuicide %>% pivot_longer(cols = c(4:186), 
    names_to = "Country", values_to = "X2016") %>% na.omit()
tidysuicide

## # A tibble: 183 x 5
##    X2015 X2010 X2000 Country             X2016
##    <dbl> <dbl> <dbl> <chr>               <dbl>
##  1   6.6   7.4   8.1 Afghanistan           6.4
##  2   5.3   7.7   5.8 Albania               5.6
##  3   3.4   3.5   4.7 Algeria               3.3
##  4   9.3  10.4  13.9 Angola                8.9
##  5   0.8   0.2   2.1 Antigua and Barbuda   0.5
##  6   8.7   8.6   9.5 Argentina             9.1
##  7   6     5.4   3.2 Armenia               5.7
##  8  12.2  11    12.2 Australia            11.7
##  9  11.5  12.2  16   Austria              11.4
## 10   2.7   3     2.4 Azerbaijan            2.6
## # … with 173 more rows

Tidying Dataset #2

human1 <- humanresources %>% select(Country:Psychologists)
untidyhuman <- human1 %>% pivot_wider(names_from = "Country", 
    values_from = "Psychiatrists")
tidyhuman <- untidyhuman %>% pivot_longer(cols = c(5:111), names_to = "Country", 
    values_to = "Psychiatrists") %>% na.omit()
tidyhuman

## # A tibble: 53 x 6
##     Year Nurses Social_workers Psychologists Country           Psychiatrists
##    <int>  <dbl>          <dbl>         <dbl> <chr>                     <dbl>
##  1  2016  6.88           1.06          1.23  Albania                   1.47 
##  2  2016  0.66           0.022         0.179 Angola                    0.057
##  3  2016 11.2            0.274         0.788 Armenia                   3.84 
##  4  2016  6.72           0.114         1.16  Azerbaijan                3.45 
##  5  2016 34.9            6.61         12.4   Brazil                    3.16 
##  6  2016 15.1            0.239         5.03  Brunei Darussalam         1.20 
##  7  2016 17.7            0.78          1.87  Bulgaria                  7.20 
##  8  2016  0.635          0.011         0.022 Burkina Faso              0.039
##  9  2016  0.5            0.02          0.02  Congo                     0.08 
## 10  2016 11.5           17.2          11.5   Cook Islands              5.73 
## # … with 43 more rows
…
fulldata1 %>% group_by(lackofsupport)

## # A tibble: 51 x 11
## # Groups:   lackofsupport [2]
##    Country  Year Psychiatrists Nurses Social_workers Psychologists X2016 X2015
##    <fct>   <int>         <dbl>  <dbl>          <dbl>         <dbl> <dbl> <dbl>
##  1 Albania  2016         1.47   6.88           1.06          1.23    5.6   5.3
##  2 Angola   2016         0.057  0.66           0.022         0.179   8.9   9.3
##  3 Armenia  2016         3.84  11.2            0.274         0.788   5.7   6  
##  4 Azerba…  2016         3.45   6.72           0.114         1.16    2.6   2.7
##  5 Brazil   2016         3.16  34.9            6.61         12.4     6.1   6.2
##  6 Brunei…  2016         1.20  15.1            0.239         5.03    4.5   4.5
##  7 Bulgar…  2016         7.20  17.7            0.78          1.87    7.9   7.9
##  8 Burkin…  2016         0.039  0.635          0.011         0.022  14.8  14.8
##  9 Congo    2016         0.08   0.5            0.02          0.02    9.3   9.5
## 10 Costa …  2016         3.93   5.70          77.0         142.      7.5   7.5
## # … with 41 more rows, and 3 more variables: X2010 <dbl>, X2000 <dbl>,
## #   lackofsupport <chr>
…
fulldata1 %>% group_by(Country, lackofsupport) %>% summarize(median(X2016))

## # A tibble: 51 x 3
## # Groups:   Country [51]
##    Country           lackofsupport `median(X2016)`
##    <fct>             <chr>                   <dbl>
##  1 Albania           High                      5.6
##  2 Angola            Low                       8.9
##  3 Armenia           Low                       5.7
##  4 Azerbaijan        High                      2.6
##  5 Brazil            High                      6.1
##  6 Brunei Darussalam High                      4.5
##  7 Bulgaria          High                      7.9
##  8 Burkina Faso      Low                      14.8
##  9 Congo             Low                       9.3
## 10 Costa Rica        High                      7.5
## # … with 41 more rows

fulldata1 %>% group_by(Country, lackofsupport, Nurses) %>% summarize(mean(Psychiatrists))

## # A tibble: 51 x 4
## # Groups:   Country, lackofsupport [51]
##    Country           lackofsupport Nurses `mean(Psychiatrists)`
##    <fct>             <chr>          <dbl>                 <dbl>
##  1 Albania           High           6.88                  1.47 
##  2 Angola            Low            0.66                  0.057
##  3 Armenia           Low           11.2                   3.84 
##  4 Azerbaijan        High           6.72                  3.45 
##  5 Brazil            High          34.9                   3.16 
##  6 Brunei Darussalam High          15.1                   1.20 
##  7 Bulgaria          High          17.7                   7.20 
##  8 Burkina Faso      Low            0.635                 0.039
##  9 Congo             Low            0.5                   0.08 
## 10 Costa Rica        High           5.70                  3.93 
## # … with 41 more rows
…
